{
  "data": {
    "records": [
      {
        "id": "1",
        "name": "First Bank",
        "code": "FBN",
        "email": "fbn@qa.team",
        "desc": "description",
        "address": "someplace close",
        "creationDate": "Wed Jun 20,2018 at 09:47PM",
        "active": true
      },
      {
        "id": "2",
        "name": "United Bank for Africa",
        "code": "UBA",
        "email": "uba@qa.team",
        "desc": "description",
        "address": "someplace close",
        "creationDate": "Sun Jun 03,2018 at 02:03PM",
        "active": false
      },
      {
        "id": "3",
        "name": "Guarantee Trust Bank",
        "code": "GTB",
        "email": "gtb@qa.team",
        "desc": "description",
        "address": "someplace close",
        "creationDate": "Fri Jun 01,2018 at 11:48AM",
        "active": true
      }
    ],
    "totalRecords": 3,
    "totalPages": 1
  }
}
